﻿"C:\Users\0148633\Documents\Barcode pi\serial_comm_barcode\trial_serial_barcode\trial_serial_barcode\obj\ARM\Release\ilc\in\trial_serial_barcode.exe"
/Lib:"C:\Users\0148633\Documents\Barcode pi\serial_comm_barcode\trial_serial_barcode\trial_serial_barcode\obj\ARM\Release\ilc\in"
/Lib:"C:\Program Files (x86)\Microsoft SDKs\UWPNuGetPackages\runtime.win10-arm.microsoft.net.native.compiler\2.2.8-rel-28605-00\tools\ARM\ilc\lib\Private"
/WinMD:"C:\Users\0148633\Documents\Barcode pi\serial_comm_barcode\trial_serial_barcode\trial_serial_barcode\obj\ARM\Release\ilc\in\WinMetadata\Windows.winmd"
/VSTelemetrySessionSettings:"{"IsOptedIn":true,"HostName":"Dev14","AppInsightsInstrumentationKey":"f144292e-e3b2-4011-ac90-20e5c03fbce5","AsimovInstrumentationKey":"AIF-312cbd79-9dbb-4c48-a7da-3cc2a931cb70","AppId":1001,"UserId":"19b62456-91f7-4a1f-9013-1ef943b9c627","Id":"4a80015c-407b-4ced-9a6d-d2656f2ef173","ProcessStartTime":637517482099718027}"
/RdXmlPath:"C:\Program Files (x86)\Microsoft SDKs\UWPNuGetPackages\microsoft.net.native.compiler\2.2.8-rel-28605-00\tools\LibraryXML"
/RunOnlyPreDR
